<?xml version="1.0" standalone="no"?>
<!DOCTYPE svg PUBLIC "-//W3C//DTD SVG 20010904//EN"
 "http://www.w3.org/TR/2001/REC-SVG-20010904/DTD/svg10.dtd">
<svg version="1.0"
  xmlns="http://www.w3.org/2000/svg" width="640.000000pt" height="640.000000pt" viewBox="0 0 640.000000 640.000000" preserveAspectRatio="xMidYMid meet">
  <metadata>
Created by potrace 1.14, written by Peter Selinger 2001-2017
  </metadata>
  <g transform="translate(0.000000,640.000000) scale(0.100000,-0.100000)" fill="#000000" stroke="none">
    <path d="M919 6380 c-174 -31 -265 -77 -339 -171 -171 -217 -87 -553 208 -830
159 -148 411 -296 677 -394 115 -43 447 -126 600 -150 164 -26 316 -39 475
-39 l186 -1 67 34 c70 36 127 89 153 144 l16 33 32 -31 c60 -56 122 -80 206
-80 86 1 146 23 203 77 l35 33 22 -43 c30 -55 89 -108 159 -141 54 -25 61 -26
241 -25 102 0 221 5 265 12 44 6 107 14 140 18 51 5 174 27 354 65 82 17 280
79 381 119 459 183 779 459 876 757 34 104 40 190 20 276 -21 91 -48 141 -110
202 -103 103 -245 144 -534 152 -269 8 -457 -22 -697 -112 -456 -171 -889
-524 -1064 -871 l-31 -61 -52 51 c-119 116 -297 116 -416 0 l-52 -51 -31 61
c-188 369 -651 734 -1138 896 -202 68 -288 81 -531 86 -180 3 -232 0 -321 -16z
m563 -414 c258 -56 489 -168 723 -351 134 -105 282 -271 337 -379 l20 -39
-118 6 c-66 4 -130 9 -144 12 -14 3 -63 10 -110 16 -253 32 -582 125 -785 223
-152 72 -254 143 -356 245 -92 93 -138 164 -144 223 l-4 37 54 11 c169 35 353
34 527 -4z m3933 9 c44 -8 81 -15 82 -15 1 0 0 -15 -2 -33 -5 -61 -55 -139
-144 -228 -227 -227 -608 -386 -1111 -464 -126 -19 -275 -34 -348 -35 l-54 0
32 58 c109 193 366 420 630 557 173 89 389 157 555 175 98 10 265 3 360 -15z"/>
    <path d="M160 4158 l0 -583 1405 3 1405 2 0 580 0 580 -1405 0 -1405 0 0 -582z"/>
    <path d="M3430 4155 l0 -585 1405 0 1405 0 0 585 0 585 -1405 0 -1405 0 0
-585z"/>
    <path d="M440 1745 l0 -1745 1265 0 1265 0 0 1745 0 1745 -1265 0 -1265 0 0
-1745z"/>
    <path d="M3430 1745 l0 -1745 1265 0 1265 0 0 1745 0 1745 -1265 0 -1265 0 0
-1745z"/>
  </g>
</svg>
